// Jest Snapshot v1, https://goo.gl/fbAQLP

exports[`should render expense with exppenses lis 1`] = `
<div>
  <Link
    replace={false}
    to="/edit/1"
  >
    Gum
  </Link>
  <p>
    195
    -
    0
  </p>
</div>
`;
